# MagicaVoxel @ ephtracy

# material
mtllib Axe.mtl
usemtl palette

# normals
vn -1 0 0
vn 1 0 0
vn 0 0 1
vn 0 0 -1
vn 0 -1 0
vn 0 1 0

# texcoords
vt 0.537109 0.5
vt 0.982422 0.5

# verts
v -7 2 -1
v -7 2 -7
v -7 3 -1
v -7 3 -7
v -6 2 -0
v -6 2 -1
v -6 2 -7
v -6 2 -8
v -6 3 -0
v -6 3 -1
v -6 3 -7
v -6 3 -8
v -5 2 -8
v -5 2 -9
v -5 3 -8
v -5 3 -9
v -4 2 -9
v -4 2 -10
v -4 3 -9
v -4 3 -10
v -1 2 11
v -1 2 -4
v -1 3 11
v -1 3 -4
v 0 1 11
v 0 1 -4
v 0 2 11
v 0 2 -4
v 0 2 -5
v 0 2 -7
v 0 2 -8
v 0 3 11
v 0 3 -4
v 0 3 -5
v 0 3 -7
v 0 3 -8
v 0 4 11
v 0 4 -4
v 2 2 -7
v 2 2 -9
v 2 3 -7
v 2 3 -9
v 3 2 -4
v 3 2 -5
v 3 2 -9
v 3 2 -10
v 3 3 -4
v 3 3 -5
v 3 3 -9
v 3 3 -10
v 4 2 -2
v 4 2 -4
v 4 3 -2
v 4 3 -4
v 5 2 -0
v 5 2 -2
v 5 3 -0
v 5 3 -2
v -4 2 -0
v -4 2 -2
v -4 3 -0
v -4 3 -2
v -3 2 -2
v -3 2 -4
v -3 3 -2
v -3 3 -4
v -2 2 -4
v -2 2 -5
v -2 2 -9
v -2 2 -10
v -2 3 -4
v -2 3 -5
v -2 3 -9
v -2 3 -10
v -1 2 -7
v -1 2 -9
v -1 3 -7
v -1 3 -9
v 1 1 11
v 1 1 -4
v 1 2 11
v 1 2 -4
v 1 2 -5
v 1 2 -7
v 1 2 -8
v 1 3 11
v 1 3 -4
v 1 3 -5
v 1 3 -7
v 1 3 -8
v 1 4 11
v 1 4 -4
v 2 2 11
v 2 2 -4
v 2 3 11
v 2 3 -4
v 5 2 -8
v 5 2 -10
v 5 3 -8
v 5 3 -10
v 7 2 -0
v 7 2 -1
v 7 2 -7
v 7 2 -8
v 7 3 -0
v 7 3 -1
v 7 3 -7
v 7 3 -8
v 8 2 -1
v 8 2 -7
v 8 3 -1
v 8 3 -7
v -1 2 11
v -1 3 11
v 0 1 11
v 0 2 11
v 0 3 11
v 0 4 11
v 1 1 11
v 1 2 11
v 1 3 11
v 1 4 11
v 2 2 11
v 2 3 11
v -6 2 -0
v -6 3 -0
v -4 2 -0
v -4 3 -0
v 5 2 -0
v 5 3 -0
v 7 2 -0
v 7 3 -0
v -7 2 -1
v -7 3 -1
v -6 2 -1
v -6 3 -1
v 7 2 -1
v 7 3 -1
v 8 2 -1
v 8 3 -1
v -4 2 -2
v -4 3 -2
v -3 2 -2
v -3 3 -2
v 4 2 -2
v 4 3 -2
v 5 2 -2
v 5 3 -2
v -3 2 -4
v -3 3 -4
v -2 2 -4
v -2 3 -4
v 3 2 -4
v 3 3 -4
v 4 2 -4
v 4 3 -4
v -2 2 -5
v -2 3 -5
v 0 2 -5
v 0 3 -5
v 1 2 -5
v 1 3 -5
v 3 2 -5
v 3 3 -5
v -1 2 -4
v -1 3 -4
v 0 1 -4
v 0 2 -4
v 0 3 -4
v 0 4 -4
v 1 1 -4
v 1 2 -4
v 1 3 -4
v 1 4 -4
v 2 2 -4
v 2 3 -4
v -7 2 -7
v -7 3 -7
v -6 2 -7
v -6 3 -7
v -1 2 -7
v -1 3 -7
v 0 2 -7
v 0 3 -7
v 1 2 -7
v 1 3 -7
v 2 2 -7
v 2 3 -7
v 7 2 -7
v 7 3 -7
v 8 2 -7
v 8 3 -7
v -6 2 -8
v -6 3 -8
v -5 2 -8
v -5 3 -8
v 0 2 -8
v 0 3 -8
v 1 2 -8
v 1 3 -8
v 5 2 -8
v 5 3 -8
v 7 2 -8
v 7 3 -8
v -5 2 -9
v -5 3 -9
v -4 2 -9
v -4 3 -9
v -2 2 -9
v -2 3 -9
v -1 2 -9
v -1 3 -9
v 2 2 -9
v 2 3 -9
v 3 2 -9
v 3 3 -9
v -4 2 -10
v -4 3 -10
v -2 2 -10
v -2 3 -10
v 3 2 -10
v 3 3 -10
v 5 2 -10
v 5 3 -10
v 0 1 11
v 1 1 11
v 0 1 -4
v 1 1 -4
v -1 2 11
v 0 2 11
v 1 2 11
v 2 2 11
v -6 2 -0
v -4 2 -0
v 5 2 -0
v 7 2 -0
v -7 2 -1
v -6 2 -1
v 7 2 -1
v 8 2 -1
v -4 2 -2
v -3 2 -2
v 4 2 -2
v 5 2 -2
v -3 2 -4
v -2 2 -4
v -1 2 -4
v 0 2 -4
v 1 2 -4
v 2 2 -4
v 3 2 -4
v 4 2 -4
v -2 2 -5
v 0 2 -5
v 1 2 -5
v 3 2 -5
v -7 2 -7
v -6 2 -7
v -1 2 -7
v 0 2 -7
v 1 2 -7
v 2 2 -7
v 7 2 -7
v 8 2 -7
v -6 2 -8
v -5 2 -8
v 0 2 -8
v 1 2 -8
v 5 2 -8
v 7 2 -8
v -5 2 -9
v -4 2 -9
v -2 2 -9
v -1 2 -9
v 2 2 -9
v 3 2 -9
v -4 2 -10
v -2 2 -10
v 3 2 -10
v 5 2 -10
v -1 3 11
v 0 3 11
v 1 3 11
v 2 3 11
v -6 3 -0
v -4 3 -0
v 5 3 -0
v 7 3 -0
v -7 3 -1
v -6 3 -1
v 7 3 -1
v 8 3 -1
v -4 3 -2
v -3 3 -2
v 4 3 -2
v 5 3 -2
v -3 3 -4
v -2 3 -4
v -1 3 -4
v 0 3 -4
v 1 3 -4
v 2 3 -4
v 3 3 -4
v 4 3 -4
v -2 3 -5
v 0 3 -5
v 1 3 -5
v 3 3 -5
v -7 3 -7
v -6 3 -7
v -1 3 -7
v 0 3 -7
v 1 3 -7
v 2 3 -7
v 7 3 -7
v 8 3 -7
v -6 3 -8
v -5 3 -8
v 0 3 -8
v 1 3 -8
v 5 3 -8
v 7 3 -8
v -5 3 -9
v -4 3 -9
v -2 3 -9
v -1 3 -9
v 2 3 -9
v 3 3 -9
v -4 3 -10
v -2 3 -10
v 3 3 -10
v 5 3 -10
v 0 4 11
v 1 4 11
v 0 4 -4
v 1 4 -4

# faces
f 3/2/1 2/2/1 1/2/1
f 4/2/1 2/2/1 3/2/1
f 9/2/1 6/2/1 5/2/1
f 10/2/1 6/2/1 9/2/1
f 11/2/1 8/2/1 7/2/1
f 12/2/1 8/2/1 11/2/1
f 15/2/1 14/2/1 13/2/1
f 16/2/1 14/2/1 15/2/1
f 19/2/1 18/2/1 17/2/1
f 20/2/1 18/2/1 19/2/1
f 23/1/1 22/1/1 21/1/1
f 24/1/1 22/1/1 23/1/1
f 27/1/1 26/1/1 25/1/1
f 28/1/1 26/1/1 27/1/1
f 33/2/1 29/2/1 28/2/1
f 34/2/1 29/2/1 33/2/1
f 35/2/1 31/2/1 30/2/1
f 36/2/1 31/2/1 35/2/1
f 37/1/1 33/1/1 32/1/1
f 38/1/1 33/1/1 37/1/1
f 41/2/1 40/2/1 39/2/1
f 42/2/1 40/2/1 41/2/1
f 47/2/1 44/2/1 43/2/1
f 48/2/1 44/2/1 47/2/1
f 49/2/1 46/2/1 45/2/1
f 50/2/1 46/2/1 49/2/1
f 53/2/1 52/2/1 51/2/1
f 54/2/1 52/2/1 53/2/1
f 57/2/1 56/2/1 55/2/1
f 58/2/1 56/2/1 57/2/1
f 59/2/2 60/2/2 61/2/2
f 61/2/2 60/2/2 62/2/2
f 63/2/2 64/2/2 65/2/2
f 65/2/2 64/2/2 66/2/2
f 67/2/2 68/2/2 71/2/2
f 71/2/2 68/2/2 72/2/2
f 69/2/2 70/2/2 73/2/2
f 73/2/2 70/2/2 74/2/2
f 75/2/2 76/2/2 77/2/2
f 77/2/2 76/2/2 78/2/2
f 79/1/2 80/1/2 81/1/2
f 81/1/2 80/1/2 82/1/2
f 82/2/2 83/2/2 87/2/2
f 87/2/2 83/2/2 88/2/2
f 84/2/2 85/2/2 89/2/2
f 89/2/2 85/2/2 90/2/2
f 86/1/2 87/1/2 91/1/2
f 91/1/2 87/1/2 92/1/2
f 93/1/2 94/1/2 95/1/2
f 95/1/2 94/1/2 96/1/2
f 97/2/2 98/2/2 99/2/2
f 99/2/2 98/2/2 100/2/2
f 101/2/2 102/2/2 105/2/2
f 105/2/2 102/2/2 106/2/2
f 103/2/2 104/2/2 107/2/2
f 107/2/2 104/2/2 108/2/2
f 109/2/2 110/2/2 111/2/2
f 111/2/2 110/2/2 112/2/2
f 116/1/3 114/1/3 113/1/3
f 117/1/3 114/1/3 116/1/3
f 119/1/3 116/1/3 115/1/3
f 119/1/3 118/1/3 117/1/3
f 119/1/3 117/1/3 116/1/3
f 120/1/3 118/1/3 119/1/3
f 121/1/3 118/1/3 120/1/3
f 122/1/3 118/1/3 121/1/3
f 123/1/3 121/1/3 120/1/3
f 124/1/3 121/1/3 123/1/3
f 127/2/3 126/2/3 125/2/3
f 128/2/3 126/2/3 127/2/3
f 131/2/3 130/2/3 129/2/3
f 132/2/3 130/2/3 131/2/3
f 135/2/3 134/2/3 133/2/3
f 136/2/3 134/2/3 135/2/3
f 139/2/3 138/2/3 137/2/3
f 140/2/3 138/2/3 139/2/3
f 143/2/3 142/2/3 141/2/3
f 144/2/3 142/2/3 143/2/3
f 147/2/3 146/2/3 145/2/3
f 148/2/3 146/2/3 147/2/3
f 151/2/3 150/2/3 149/2/3
f 152/2/3 150/2/3 151/2/3
f 155/2/3 154/2/3 153/2/3
f 156/2/3 154/2/3 155/2/3
f 159/2/3 158/2/3 157/2/3
f 160/2/3 158/2/3 159/2/3
f 163/2/3 162/2/3 161/2/3
f 164/2/3 162/2/3 163/2/3
f 165/1/4 166/1/4 168/1/4
f 168/1/4 166/1/4 169/1/4
f 167/1/4 168/1/4 171/1/4
f 171/1/4 168/1/4 172/1/4
f 169/1/4 170/1/4 173/1/4
f 173/1/4 170/1/4 174/1/4
f 172/1/4 173/1/4 175/1/4
f 175/1/4 173/1/4 176/1/4
f 177/2/4 178/2/4 179/2/4
f 179/2/4 178/2/4 180/2/4
f 181/2/4 182/2/4 183/2/4
f 183/2/4 182/2/4 184/2/4
f 185/2/4 186/2/4 187/2/4
f 187/2/4 186/2/4 188/2/4
f 189/2/4 190/2/4 191/2/4
f 191/2/4 190/2/4 192/2/4
f 193/2/4 194/2/4 195/2/4
f 195/2/4 194/2/4 196/2/4
f 197/2/4 198/2/4 199/2/4
f 199/2/4 198/2/4 200/2/4
f 201/2/4 202/2/4 203/2/4
f 203/2/4 202/2/4 204/2/4
f 205/2/4 206/2/4 207/2/4
f 207/2/4 206/2/4 208/2/4
f 209/2/4 210/2/4 211/2/4
f 211/2/4 210/2/4 212/2/4
f 213/2/4 214/2/4 215/2/4
f 215/2/4 214/2/4 216/2/4
f 217/2/4 218/2/4 219/2/4
f 219/2/4 218/2/4 220/2/4
f 221/2/4 222/2/4 223/2/4
f 223/2/4 222/2/4 224/2/4
f 227/1/5 226/1/5 225/1/5
f 228/1/5 226/1/5 227/1/5
f 238/2/5 234/2/5 233/2/5
f 239/2/5 236/2/5 235/2/5
f 241/2/5 238/2/5 237/2/5
f 241/2/5 234/2/5 238/2/5
f 244/2/5 240/2/5 239/2/5
f 244/2/5 239/2/5 235/2/5
f 245/2/5 242/2/5 241/2/5
f 247/1/5 230/1/5 229/1/5
f 248/1/5 230/1/5 247/1/5
f 249/1/5 232/1/5 231/1/5
f 250/1/5 232/1/5 249/1/5
f 252/2/5 244/2/5 243/2/5
f 253/2/5 246/2/5 245/2/5
f 254/2/5 249/2/5 248/2/5
f 255/2/5 249/2/5 254/2/5
f 256/2/5 252/2/5 251/2/5
f 257/2/5 255/2/5 254/2/5
f 257/2/5 256/2/5 255/2/5
f 257/2/5 241/2/5 237/2/5
f 257/2/5 245/2/5 241/2/5
f 257/2/5 254/2/5 253/2/5
f 257/2/5 253/2/5 245/2/5
f 258/2/5 256/2/5 257/2/5
f 259/2/5 256/2/5 258/2/5
f 260/2/5 256/2/5 259/2/5
f 261/2/5 256/2/5 260/2/5
f 262/2/5 256/2/5 261/2/5
f 263/2/5 252/2/5 256/2/5
f 263/2/5 256/2/5 262/2/5
f 263/2/5 244/2/5 252/2/5
f 263/2/5 240/2/5 244/2/5
f 264/2/5 240/2/5 263/2/5
f 265/2/5 259/2/5 258/2/5
f 266/2/5 259/2/5 265/2/5
f 267/2/5 261/2/5 260/2/5
f 268/2/5 261/2/5 267/2/5
f 269/2/5 263/2/5 262/2/5
f 270/2/5 263/2/5 269/2/5
f 271/2/5 259/2/5 266/2/5
f 272/2/5 259/2/5 271/2/5
f 273/2/5 259/2/5 272/2/5
f 274/2/5 259/2/5 273/2/5
f 275/2/5 269/2/5 262/2/5
f 276/2/5 269/2/5 275/2/5
f 277/2/5 273/2/5 272/2/5
f 278/2/5 273/2/5 277/2/5
f 279/2/5 269/2/5 276/2/5
f 280/2/5 269/2/5 279/2/5
f 285/2/6 286/2/6 290/2/6
f 287/2/6 288/2/6 291/2/6
f 289/2/6 290/2/6 293/2/6
f 290/2/6 286/2/6 293/2/6
f 291/2/6 292/2/6 296/2/6
f 287/2/6 291/2/6 296/2/6
f 293/2/6 294/2/6 297/2/6
f 281/1/6 282/1/6 299/1/6
f 299/1/6 282/1/6 300/1/6
f 283/1/6 284/1/6 301/1/6
f 301/1/6 284/1/6 302/1/6
f 295/2/6 296/2/6 304/2/6
f 297/2/6 298/2/6 305/2/6
f 300/2/6 301/2/6 306/2/6
f 306/2/6 301/2/6 307/2/6
f 303/2/6 304/2/6 308/2/6
f 306/2/6 307/2/6 309/2/6
f 307/2/6 308/2/6 309/2/6
f 289/2/6 293/2/6 309/2/6
f 293/2/6 297/2/6 309/2/6
f 305/2/6 306/2/6 309/2/6
f 297/2/6 305/2/6 309/2/6
f 309/2/6 308/2/6 310/2/6
f 310/2/6 308/2/6 311/2/6
f 311/2/6 308/2/6 312/2/6
f 312/2/6 308/2/6 313/2/6
f 313/2/6 308/2/6 314/2/6
f 308/2/6 304/2/6 315/2/6
f 314/2/6 308/2/6 315/2/6
f 304/2/6 296/2/6 315/2/6
f 296/2/6 292/2/6 315/2/6
f 315/2/6 292/2/6 316/2/6
f 310/2/6 311/2/6 317/2/6
f 317/2/6 311/2/6 318/2/6
f 312/2/6 313/2/6 319/2/6
f 319/2/6 313/2/6 320/2/6
f 314/2/6 315/2/6 321/2/6
f 321/2/6 315/2/6 322/2/6
f 318/2/6 311/2/6 323/2/6
f 323/2/6 311/2/6 324/2/6
f 324/2/6 311/2/6 325/2/6
f 325/2/6 311/2/6 326/2/6
f 314/2/6 321/2/6 327/2/6
f 327/2/6 321/2/6 328/2/6
f 324/2/6 325/2/6 329/2/6
f 329/2/6 325/2/6 330/2/6
f 328/2/6 321/2/6 331/2/6
f 331/2/6 321/2/6 332/2/6
f 333/1/6 334/1/6 335/1/6
f 335/1/6 334/1/6 336/1/6
